990059 708498 525
850689 699638 525
831994 320336 509
405602 363197 436
260267 511870 449
468584 41953 449
379826 131960 443
168739 119702 383
903640 532353 525
438 797787 509
98116 669950 509
892048 474561 525
78281 861003 525
545563 72911 470
890240 190942 525
123570 550889 470
266717 638090 509
287288 958087 525
784970 923466 525
706261 260619 509
931392 811060 525
107219 32133 354
928803 470561 525
402352 930366 525
205793 910182 525
487711 121185 449
296700 903287 525
639495 968004 525
758989 826112 468
306050 777991 509
744083 507397 509
89946 307966 443
579425 301376 470
530015 780015 509
551677 527960 452
877990 677766 525
933187 817998 525
413503 22301 449
666438 959141 525
183789 667891 509
566193 405471 470
814885 662915 504
100745 564953 470
175048 769461 509
947059 502011 525
734672 535387 509
522550 692486 509
584538 411112 470
675829 517963 509
434416 550750 470
402596 651874 509
867001 305889 525
860851 332715 525
827843 502040 509
676074 975274 525
681685 58459 509
401162 798247 509
723054 59583 509
421390 729285 509
472187 928629 525
339324 807096 509
123086 371497 443
980657 917538 507
775139 784694 437
295929 280947 389
920996 51163 525
469844 939031 525
120084 453111 449
563390 513166 452
437914 291266 449
901751 339359 525
570676 400837 470
715497 724517 411
275051 616535 470
142509 850648 525
614774 351866 470
79553 607761 470
468168 864423 525
476558 759400 509
123337 307907 443
509042 716536 509
38724 849054 525
682830 703780 442
929044 446834 525
387210 391253 436
869096 268771 525
410725 121050 449
167946 14326 383
412366 462405 444
436889 266568 449
766172 551256 509
703720 494877 509
630175 63961 509
740155 336593 509
88836 719722 509
968746 704627 525
51601 876425 525
532764 126117 470
546828 667920 509
881104 336377 525
857751 600886 525
351065 829696 509
795428 509239 509
498111 696459 509
229621 973705 525
171150 493264 449
497788 682630 509
899043 519526 525
721462 953477 525
793905 425542 509
699686 72468 509
754957 188624 509
795093 15871 509
681070 319909 509
291325 494343 449
454375 9919 449
528370 103596 470
564857 803924 509
849831 625987 525
933145 226044 525
398552 124084 443
726935 63014 509
895383 257420 525
360131 162225 443
487430 525317 470
130955 728981 509
485196 593304 470
260822 611078 470
533241 613497 452
947674 761720 525
148850 425712 449
364744 27742 443
269214 435225 449
309243 114306 443
587112 91638 470
923680 799823 525
982150 37821 525
148453 715214 509
351771 714923 509
516141 494440 470
674896 702454 442
520361 886120 525
243023 913609 525
393302 764124 509
593187 249520 470
944299 264347 525
828338 413238 509
454896 795178 509
941035 985291 458
703707 413586 509
395286 599126 470
817959 822200 450
966608 396701 525
468270 241767 449
603933 20391 470
292483 537884 470
150478 42134 375
2536 891029 525
52336 668054 509
890718 651574 525
115244 987644 525
874866 502679 525
151338 123582 375
837748 441638 509
77121 185242 383
37460 722048 509
989008 672934 525
894026 349564 525
452624 266969 449
283343 767562 509
598373 308028 470
207942 951901 525
778229 824831 468
162505 560842 470
861317 343215 525
720645 309665 509
832931 227893 509
879385 595792 525
617056 394165 470
547530 748540 509
132399 706763 509
62124 534594 470
621888 160275 470
986716 733302 525
140204 743321 509
830807 605208 509
920880 101083 525
123429 545939 470
832508 664706 504
922283 309094 525
995095 601592 525
973371 80494 525
899182 19576 525
65921 209715 383
129757 988453 525
966314 195181 525
212449 400086 443
98545 193439 383
981741 816968 525
65878 553401 470
868607 621119 525
78855 802525 509
454965 969200 525
607084 928211 525
461966 891259 525
347464 650835 509
507484 950558 525
700001 115829 509
631838 26393 509
632866 482901 509
948051 995918 458
289702 323418 384
18180 48784 324
427438 887816 525
129332 974319 525
370146 343948 441
129603 301241 443
935550 195973 525
220264 772097 509
523926 471763 470
159261 349815 443
143909 196353 383
793157 572701 509
934729 178218 525
66113 932936 525
245569 371799 441
777254 573005 509
172885 724626 509
380100 187304 443
756043 411533 509
59957 888080 525
331710 546916 470
449957 360828 449
325800 34596 443
532858 529035 377
762531 444181 509
672136 600400 509
441223 935639 525
308121 349347 441
425178 122650 449
731473 653866 504
739086 290725 509
448196 711204 509
365507 351751 410
661840 740993 504
293287 346953 441
966631 918780 507
922614 164282 525
428425 992403 525
160089 570433 470
849892 822482 525
82048 978485 525
405852 109307 443
185650 207985 373
87209 552287 470
947225 168626 525
113629 293024 443
258871 107907 443
275810 326449 389
582704 441583 470
451217 492634 444
204259 597348 470
46878 193318 383
834759 815833 450
215674 884224 525
932499 792062 525
320089 257478 407
540392 684211 509
