307886 453320 449
734802 129468 509
428247 573480 470
917561 939329 476
275211 560531 470
105124 253321 443
516657 642173 509
793534 980958 525
732097 823649 468
921226 533974 525
818339 270375 509
501897 582210 470
828228 155239 509
719127 348092 509
364319 627774 509
727660 887340 525
185115 723966 509
554904 253491 470
94971 98043 328
434697 315880 449
839866 761361 525
530143 735754 509
578614 66939 470
577243 510614 470
593954 790381 509
166608 798320 509
975584 262330 525
442405 725345 509
760638 986650 525
569349 853795 525
478622 830408 509
523249 373510 470
644797 32998 509
65564 406432 443
779094 376363 509
919708 258158 525
398953 951086 525
228160 933434 525
278884 968467 525
955545 790701 525
802518 255992 509
13448 747123 509
147083 366355 443
800478 586354 509
415362 226988 449
82651 273288 443
892438 316071 525
44096 687466 509
886336 905266 445
484227 208116 449
858038 412074 525
80324 735871 509
256928 735854 509
827114 612653 509
404825 626993 509
875093 168457 525
456003 605651 470
665918 159300 509
631103 28789 509
99645 978783 525
173449 64452 383
269170 121828 443
716837 372543 509
420370 808642 509
785372 645342 504
356006 772567 509
211455 417952 449
560257 526920 452
830364 210936 509
896502 780899 525
822834 479351 509
186869 642194 509
224951 726412 509
779392 688872 504
258824 406307 441
241183 71986 443
230264 107613 386
508503 193486 449
246851 811713 509
766304 187665 509
324673 117809 443
335376 695137 509
861331 878509 432
519231 649361 509
21740 420308 449
960812 424078 525
892454 144267 525
108835 140036 349
187421 777884 509
612971 121854 470
751580 166128 509
771016 826325 468
429983 993042 525
271573 65864 443
455680 136044 449
232167 629870 509
849975 403404 525
586061 301504 470
700543 811456 504
443150 372579 449
308212 764222 509
780102 265281 509
71301 480854 449
512911 592418 452
627529 270503 509
652091 168234 509
644283 923050 525
579494 255395 470
990280 787169 525
605970 56161 470
123512 544956 470
256700 77529 443
238026 949546 525
50491 820671 509
584714 193396 470
264362 52398 443
415053 24416 449
802686 255819 509
561285 277504 470
233652 418975 449
372688 279332 441
677876 71089 509
354059 628910 509
478818 660646 509
111007 568057 470
617842 710015 509
333938 410288 449
686714 897781 525
141029 870895 525
331387 856683 525
676101 126628 509
678553 725449 504
808563 438530 509
695961 758256 504
464691 558126 470
669177 325232 509
388016 324255 441
507066 728337 509
974004 388907 525
275185 398227 441
935149 406675 525
121278 907370 525
903670 941318 507
388459 254316 441
756823 955363 525
310418 761006 509
84855 468812 449
74506 319106 443
671456 293419 509
540049 739056 509
426997 92748 449
119148 869858 525
792847 474687 509
594265 674545 509
372385 800242 509
15528 445680 449
179335 82109 383
27337 308420 443
2783 664994 509
523919 283657 470
847953 932523 476
479469 556756 470
786 753544 509
103232 63778 351
441575 361844 449
745641 35677 509
798776 654715 504
691120 8166 509
509712 375497 449
464927 665768 509
990932 248707 525
106949 842828 525
484750 867698 525
636642 752171 504
865585 776037 525
702013 895018 525
911397 672769 525
338531 101891 443
988287 800422 525
205598 287860 443
163292 66368 383
714649 568635 509
433050 427496 387
41452 134542 354
603066 577181 434
839128 937069 476
814884 697159 504
371263 238023 441
309636 526192 470
554644 551334 421
174703 416439 449
400574 824404 509
575871 937809 525
205976 977402 525
629749 604528 509
543718 936436 525
430740 64889 449
428151 312826 449
875496 957514 507
332929 190075 443
398699 985868 525
581627 791130 509
424252 522159 470
577345 607705 434
730755 196058 509
997696 574928 525
253769 513240 470
927636 839765 476
124082 610307 470
179291 357083 443
168641 704677 509
253756 772143 509
895673 314216 525
771181 300320 509
669750 63307 509
433905 653340 509
236598 119128 443
474183 200105 449
333057 247018 407
222660 338767 443
821547 112984 509
606819 497777 470
145623 179849 383
717900 772309 468
832066 356222 509
151628 26897 375
987553 542525 525
441373 265012 449
220288 284410 443
336988 106396 443
183462 105601 383
833642 734668 468
517153 289324 470
308246 910102 525
120454 698272 509
213242 208540 355
946370 634848 525
2412 663017 509
790704 919974 525
701862 455981 509
880290 978698 507
994041 529235 525
941276 527619 525
741037 647598 504
683811 128357 509
352488 176405 443
22302 468219 449
419636 686038 509
217486 808992 509
930958 978599 507
999025 763029 525
587305 70690 470
703136 815306 504
213407 864947 525
873820 174920 525
624491 808706 509
410301 109351 449
424010 46599 449
183374 632678 509
210048 300713 443
185955 802118 509
653965 856669 525
190279 323682 443
117349 391134 443
388751 305978 441
392332 421485 449
70504 640407 509
477593 129931 449
509347 182236 449
419055 367778 449
118291 304204 443
195321 282571 443
