481147 577400
964441 449245
66442 575183
253018 841040
524793 703375
933037 363819
747264 873922
783596 251393
174865 492377
454301 929218
159760 676538
496081 452526
258024 51432
54550 659986
217752 817485
834790 24901
416967 691484
460004 202699
78934 48730
781566 208007
45252 344543
21955 706114
622359 865174
84492 741076
996578 511919
582067 482765
164721 379811
405195 528391
260499 457489
438007 732120
830440 946603
733012 234391
777126 27127
327202 943013
382497 558718
408604 857617
79917 664209
271643 995842
882346 547627
377803 413196
726224 83019
121333 374440
630174 437023
195430 88875
78852 749879
860585 8101
189595 328270
92568 145995
104884 833812
5967 67530
394109 788637
370656 453169
347525 860295
494775 805576
631433 829383
998398 763626
807050 920579
408874 514980
667103 239545
462582 191478
282027 958695
813391 42021
406844 632500
891344 646408
245640 427848
234909 319749
363114 790989
307614 645736
843370 768324
600377 887922
205520 544193
850403 595159
206534 692569
319315 559323
838313 718357
928991 797908
564576 137425
788140 989273
268669 592085
394594 242435
123927 891228
211899 427226
641711 625018
234354 330826
725652 291814
173146 526453
215148 27060
171842 688576
841272 76243
360680 557556
956992 741674
991434 759068
127137 461467
877644 821304
499107 532623
671866 489156
835885 368086
197894 974958
533468 647493
780935 939137
783028 562835
571423 464486
594333 898220
508293 647921
765001 585758
334493 644189
779612 490752
293864 211942
498651 125454
797301 404746
705164 436147
713262 959977
14948 49976
701475 51774
259897 661751
236153 620386
25710 360686
763857 91141
832661 250016
54303 424533
122295 470443
377002 510292
684051 447120
51029 985177
502399 615321
439079 550931
545326 308293
395144 130524
464226 387416
466196 473212
566231 618305
807357 137053
244898 335366
106834 479582
413285 678783
552636 963256
827767 291800
662162 712178
714217 630235
87014 647926
444292 405113
643118 268073
304492 94773
403262 384851
341333 780613
862194 385717
869084 332013
464924 808474
933303 391675
743940 251509
988570 120316
764046 440858
981401 569652
99345 311748
939733 126526
662377 195857
293979 660391
949862 992080
512636 307920
232134 476932
659810 703847
710739 392489
824230 412464
809712 52530
850085 871894
491653 360838
637719 978452
38178 404172
312224 865263
918939 450024
818888 610053
404969 560060
638864 531250
762061 717965
129358 602361
745584 157839
850544 790206
56554 398106
462458 284858
666364 252786
873079 705596
576730 986751
364884 915519
489508 777762
80346 245650
397983 845388
363191 81525
209606 605787
928191 256666
696474 314228
372719 983307
696472 346736
664331 256411
985092 782747
274554 764170
125000 60815
426290 191612
514104 174659
51330 280872
222691 418650
230308 841893
849011 936496
577368 863650
984236 961095
505807 76922
877105 573195
573083 186803
964577 33371
730964 586490
93178 514389
317593 230202
145842 991584
680651 726752
860770 29983
858716 457936
87842 362536
537714 666125
34063 563117
195714 483490
495822 491791
695015 211001
311475 490139
277219 103744
179635 65056
830879 805387
884942 309542
809790 646762
513446 924775
650816 376811
506598 718708
871590 226836
299227 661069
324068 658943
767796 723914
779823 467754
155057 427584
860293 834723
396235 928012
77219 240212
226028 871962
245649 282200
850731 216040
468519 998481
815661 939752
386195 765548
752322 297552
539132 279289
348402 443645
70330 919421
86825 174966
76792 76205
311224 349790
130916 16069
60054 17393
744183 189572
867377 58942
905357 98958
159034 903017
891941 290125
230283 115017
608050 594835
998504 439181
445971 133753
201645 171978
40947 521519
190880 282049
354368 191746
513338 405670
897792 523573
757532 787434
714161 193588
335726 633521
641556 902749
34094 672344
513995 106844
897460 445912
